…
Import the likelihood object into R

We start with compiling our C++ template and loading our data. I downloaded 5 years of data from this cite.

library(TMB)
library(tidyverse)
compile("sv.cpp")
dyn.load(dynlib("sv"))
bc <- read_csv("BC10112013_10112018_coindesk.csv")

Lets look at the data:

bc

## # A tibble: 1,829 x 2
##    Date                `Close Price`
##    <dttm>                      <dbl>
##  1 2013-11-10 00:00:00          312.
##  2 2013-11-11 00:00:00          333.
##  3 2013-11-12 00:00:00          349.
##  4 2013-11-13 00:00:00          393.
##  5 2013-11-14 00:00:00          411.
##  6 2013-11-15 00:00:00          409.
##  7 2013-11-16 00:00:00          429.
##  8 2013-11-17 00:00:00          476.
##  9 2013-11-18 00:00:00          674.
## 10 2013-11-19 00:00:00          542.
## # ... with 1,819 more rows
…
